[
    {
        "locationName" : "Bierhaus",
        "address": "Emanuil Ungureanu, 15",
        "geo" : [45.758643 , 21.226862],
        "beers" : [
            {
                "id" : "1",
                "probability" : 98
            },
            {
                "id" : "2",
                "probability" : 90.5
            }
        ]
    },
    {
        "locationName" : "Drunken Rat",
        "address": "George Cosbuc, 1",
        "geo" : [45.7582874 , 21.2285411],
        "beers" : [
            {
                "id" : "1",
                "probability" : 98
            },
            {
                "id" : "2",
                "probability" : 90.3
            }
        ]
    },
       {
            "locationName" : "Curtea Berarilor Timisoreana",
            "address": "Proclamatia de la Timisoara 7",
            "geo" : [45.755890, 21.230739],
            "beers" : [
                {
                    "id" : "1",
                    "probability" : 98
                },
                {
                    "id" : "2",
                    "probability" : 90.3
                }
            ]
        },
    {
            "locationName" : "Beer & Bricks",
            "address": "Str Florimund Mercy 7",
            "geo" : [45.756699, 21.228782],
            "beers" : [
                {
                    "id" : "1",
                    "probability" : 98
                },
                {
                    "id" : "2",
                    "probability" : 90.3
                }
            ]
        },
{
            "locationName" : "The Note Pub",
            "address": "Bulevardul Mihai Eminescu 2",
            "geo" : [45.752092, 21.231272],
            "beers" : [
                {
                    "id" : "1",
                    "probability" : 98
                },
                {
                    "id" : "2",
                    "probability" : 90.3
                }
            ]
        }
]